%YAML 1.1
%TAG !u! tag:unity3d.com,2011:
--- !u!1 &3591851912135101039
GameObject:
  m_ObjectHideFlags: 0
  m_CorrespondingSourceObject: {fileID: 0}
  m_PrefabInstance: {fileID: 0}
  m_PrefabAsset: {fileID: 0}
  serializedVersion: 6
  m_Component:
  - component: {fileID: 5426008300336119923}
  - component: {fileID: 9144235314850670995}
  - component: {fileID: 232746248666238067}
  m_Layer: 0
  m_Name: LazerGun
  m_TagString: Untagged
  m_Icon: {fileID: 0}
  m_NavMeshLayer: 0
  m_StaticEditorFlags: 0
  m_IsActive: 1
--- !u!4 &5426008300336119923
Transform:
  m_ObjectHideFlags: 0
  m_CorrespondingSourceObject: {fileID: 0}
  m_PrefabInstance: {fileID: 0}
  m_PrefabAsset: {fileID: 0}
  m_GameObject: {fileID: 3591851912135101039}
  serializedVersion: 2
  m_LocalRotation: {x: 0, y: 0, z: 0, w: 1}
  m_LocalPosition: {x: 0, y: 0, z: 0}
  m_LocalScale: {x: 5, y: 5, z: 1}
  m_ConstrainProportionsScale: 1
  m_Children:
  - {fileID: 8857212034854970298}
  m_Father: {fileID: 0}
  m_LocalEulerAnglesHint: {x: 0, y: 0, z: 0}
--- !u!212 &9144235314850670995
SpriteRenderer:
  m_ObjectHideFlags: 0
  m_CorrespondingSourceObject: {fileID: 0}
  m_PrefabInstance: {fileID: 0}
  m_PrefabAsset: {fileID: 0}
  m_GameObject: {fileID: 3591851912135101039}
  m_Enabled: 1
  m_CastShadows: 0
  m_ReceiveShadows: 0
  m_DynamicOccludee: 1
  m_StaticShadowCaster: 0
  m_MotionVectors: 1
  m_LightProbeUsage: 1
  m_ReflectionProbeUsage: 1
  m_RayTracingMode: 0
  m_RayTraceProcedural: 0
  m_RenderingLayerMask: 1
  m_RendererPriority: 0
  m_Materials:
  - {fileID: 10754, guid: 0000000000000000f000000000000000, type: 0}
  m_StaticBatchInfo:
    firstSubMesh: 0
    subMeshCount: 0
  m_StaticBatchRoot: {fileID: 0}
  m_ProbeAnchor: {fileID: 0}
  m_LightProbeVolumeOverride: {fileID: 0}
  m_ScaleInLightmap: 1
  m_ReceiveGI: 1
  m_PreserveUVs: 0
  m_IgnoreNormalsForChartDetection: 0
  m_ImportantGI: 0
  m_StitchLightmapSeams: 1
  m_SelectedEditorRenderState: 0
  m_MinimumChartSize: 4
  m_AutoUVMaxDistance: 0.5
  m_AutoUVMaxAngle: 89
  m_LightmapParameters: {fileID: 0}
  m_SortingLayerID: -1678776841
  m_SortingLayer: 2
  m_SortingOrder: 0
  m_Sprite: {fileID: 21300000, guid: f9364f34dce301e45881c654efe7c41d, type: 3}
  m_Color: {r: 1, g: 1, b: 1, a: 1}
  m_FlipX: 0
  m_FlipY: 0
  m_DrawMode: 0
  m_Size: {x: 1, y: 1}
  m_AdaptiveModeThreshold: 0.5
  m_SpriteTileMode: 0
  m_WasSpriteAssigned: 1
  m_MaskInteraction: 0
  m_SpriteSortPoint: 0
--- !u!114 &232746248666238067
MonoBehaviour:
  m_ObjectHideFlags: 0
  m_CorrespondingSourceObject: {fileID: 0}
  m_PrefabInstance: {fileID: 0}
  m_PrefabAsset: {fileID: 0}
  m_GameObject: {fileID: 3591851912135101039}
  m_Enabled: 1
  m_EditorHideFlags: 0
  m_Script: {fileID: 11500000, guid: ed71b8f983a926f4999eb4edbfe71c97, type: 3}
  m_Name: 
  m_EditorClassIdentifier: 
  spinSpeed: 0.1
  offsetFromCenter: -1.27
  bulletCooldown: 15
  bulletType: 
  bulletSpawnOffset: 2
  terrainMask:
    serializedVersion: 2
    m_Bits: 0
  lazerBeam: {fileID: 5056597220990877848}
  startingFadeLenght: 2
  activeLazerDuration: 1
  endingFadeLenght: 2
  damageInterval: 0.1
--- !u!1001 &3382911109001377280
PrefabInstance:
  m_ObjectHideFlags: 0
  serializedVersion: 2
  m_Modification:
    serializedVersion: 3
    m_TransformParent: {fileID: 5426008300336119923}
    m_Modifications:
    - target: {fileID: 4623012905512936713, guid: fe77922bb04889242afcba756c96209a, type: 3}
      propertyPath: m_Color.a
      value: 0
      objectReference: {fileID: 0}
    - target: {fileID: 4623012905512936713, guid: fe77922bb04889242afcba756c96209a, type: 3}
      propertyPath: m_SortingLayer
      value: 4
      objectReference: {fileID: 0}
    - target: {fileID: 4623012905512936713, guid: fe77922bb04889242afcba756c96209a, type: 3}
      propertyPath: m_SortingLayerID
      value: -1856560207
      objectReference: {fileID: 0}
    - target: {fileID: 5562748432935510173, guid: fe77922bb04889242afcba756c96209a, type: 3}
      propertyPath: m_Enabled
      value: 0
      objectReference: {fileID: 0}
    - target: {fileID: 6060051596927538618, guid: fe77922bb04889242afcba756c96209a, type: 3}
      propertyPath: m_LocalPosition.x
      value: 7.61
      objectReference: {fileID: 0}
    - target: {fileID: 6060051596927538618, guid: fe77922bb04889242afcba756c96209a, type: 3}
      propertyPath: m_LocalPosition.y
      value: 0
      objectReference: {fileID: 0}
    - target: {fileID: 6060051596927538618, guid: fe77922bb04889242afcba756c96209a, type: 3}
      propertyPath: m_LocalPosition.z
      value: 0
      objectReference: {fileID: 0}
    - target: {fileID: 6060051596927538618, guid: fe77922bb04889242afcba756c96209a, type: 3}
      propertyPath: m_LocalRotation.w
      value: 1
      objectReference: {fileID: 0}
    - target: {fileID: 6060051596927538618, guid: fe77922bb04889242afcba756c96209a, type: 3}
      propertyPath: m_LocalRotation.x
      value: 0
      objectReference: {fileID: 0}
    - target: {fileID: 6060051596927538618, guid: fe77922bb04889242afcba756c96209a, type: 3}
      propertyPath: m_LocalRotation.y
      value: 0
      objectReference: {fileID: 0}
    - target: {fileID: 6060051596927538618, guid: fe77922bb04889242afcba756c96209a, type: 3}
      propertyPath: m_LocalRotation.z
      value: 0
      objectReference: {fileID: 0}
    - target: {fileID: 6060051596927538618, guid: fe77922bb04889242afcba756c96209a, type: 3}
      propertyPath: m_LocalEulerAnglesHint.x
      value: 0
      objectReference: {fileID: 0}
    - target: {fileID: 6060051596927538618, guid: fe77922bb04889242afcba756c96209a, type: 3}
      propertyPath: m_LocalEulerAnglesHint.y
      value: 0
      objectReference: {fileID: 0}
    - target: {fileID: 6060051596927538618, guid: fe77922bb04889242afcba756c96209a, type: 3}
      propertyPath: m_LocalEulerAnglesHint.z
      value: 0
      objectReference: {fileID: 0}
    - target: {fileID: 6912245339875020765, guid: fe77922bb04889242afcba756c96209a, type: 3}
      propertyPath: m_MaskSource
      value: 0
      objectReference: {fileID: 0}
    - target: {fileID: 6912245339875020765, guid: fe77922bb04889242afcba756c96209a, type: 3}
      propertyPath: m_MaskAlphaCutoff
      value: 0.324
      objectReference: {fileID: 0}
    - target: {fileID: 6912245339875020765, guid: fe77922bb04889242afcba756c96209a, type: 3}
      propertyPath: m_BackSortingLayer
      value: 0
      objectReference: {fileID: 0}
    - target: {fileID: 6912245339875020765, guid: fe77922bb04889242afcba756c96209a, type: 3}
      propertyPath: m_FrontSortingLayer
      value: 0
      objectReference: {fileID: 0}
    - target: {fileID: 6912245339875020765, guid: fe77922bb04889242afcba756c96209a, type: 3}
      propertyPath: m_BackSortingLayerID
      value: 0
      objectReference: {fileID: 0}
    - target: {fileID: 6912245339875020765, guid: fe77922bb04889242afcba756c96209a, type: 3}
      propertyPath: m_FrontSortingLayerID
      value: 0
      objectReference: {fileID: 0}
    - target: {fileID: 6912245339875020765, guid: fe77922bb04889242afcba756c96209a, type: 3}
      propertyPath: m_IsCustomRangeActive
      value: 0
      objectReference: {fileID: 0}
    - target: {fileID: 7556521047531222680, guid: fe77922bb04889242afcba756c96209a, type: 3}
      propertyPath: boxCollider
      value: 
      objectReference: {fileID: 7187843415621801629}
    - target: {fileID: 7556521047531222680, guid: fe77922bb04889242afcba756c96209a, type: 3}
      propertyPath: spriteRenderer
      value: 
      objectReference: {fileID: 7987905815759213321}
    - target: {fileID: 7613714160282768406, guid: fe77922bb04889242afcba756c96209a, type: 3}
      propertyPath: m_Name
      value: LazerBeam
      objectReference: {fileID: 0}
    - target: {fileID: 7613714160282768406, guid: fe77922bb04889242afcba756c96209a, type: 3}
      propertyPath: m_Layer
      value: 10
      objectReference: {fileID: 0}
    - target: {fileID: 7613714160282768406, guid: fe77922bb04889242afcba756c96209a, type: 3}
      propertyPath: m_IsActive
      value: 1
      objectReference: {fileID: 0}
    - target: {fileID: 8116365949645786687, guid: fe77922bb04889242afcba756c96209a, type: 3}
      propertyPath: m_SpriteTilingProperty.newSize.y
      value: 279.9
      objectReference: {fileID: 0}
    m_RemovedComponents: []
    m_RemovedGameObjects: []
    m_AddedGameObjects: []
    m_AddedComponents: []
  m_SourcePrefab: {fileID: 100100000, guid: fe77922bb04889242afcba756c96209a, type: 3}
--- !u!114 &5056597220990877848 stripped
MonoBehaviour:
  m_CorrespondingSourceObject: {fileID: 7556521047531222680, guid: fe77922bb04889242afcba756c96209a, type: 3}
  m_PrefabInstance: {fileID: 3382911109001377280}
  m_PrefabAsset: {fileID: 0}
  m_GameObject: {fileID: 0}
  m_Enabled: 1
  m_EditorHideFlags: 0
  m_Script: {fileID: 11500000, guid: de3bd7c96f6578c48b2b61cac98c57c8, type: 3}
  m_Name: 
  m_EditorClassIdentifier: 
--- !u!61 &7187843415621801629 stripped
BoxCollider2D:
  m_CorrespondingSourceObject: {fileID: 5562748432935510173, guid: fe77922bb04889242afcba756c96209a, type: 3}
  m_PrefabInstance: {fileID: 3382911109001377280}
  m_PrefabAsset: {fileID: 0}
--- !u!212 &7987905815759213321 stripped
SpriteRenderer:
  m_CorrespondingSourceObject: {fileID: 4623012905512936713, guid: fe77922bb04889242afcba756c96209a, type: 3}
  m_PrefabInstance: {fileID: 3382911109001377280}
  m_PrefabAsset: {fileID: 0}
--- !u!4 &8857212034854970298 stripped
Transform:
  m_CorrespondingSourceObject: {fileID: 6060051596927538618, guid: fe77922bb04889242afcba756c96209a, type: 3}
  m_PrefabInstance: {fileID: 3382911109001377280}
  m_PrefabAsset: {fileID: 0}
